{
  "name": "Toasts",
  "intro": "A toast is a lightweight notification style that can be used to bring something to the users attention.",
  "description": "Toasts can be <code>div</code> tags.",
  "items": [
    {
      "name": "Default",
      "path": "variations/toasts.html",
      "description": "The default position for the toast should be in the top right corner of the screen.",
      "contentNotes": "JS block has to be used in order to show it. i.e. <code>$('.toast').toast('show')</code>",
      "whenToUse": "",
      "alerts": []
    }
  ]
}
