{
  "name": "Timelines",
  "intro": "",
  "description": "",
  "items": [
    {
      "name": "Default",
      "path": "variations/timeline.html",
      "description": "",
      "contentNotes": "",
      "whenToUse": "",
      "alerts": []
    },
    {
      "name": "With header",
      "path": "variations/timeline-header.html",
      "description": "",
      "contentNotes": "",
      "whenToUse": "",
      "alerts": []
    }
  ]
}
