{
  "name": "Cards",
  "intro": "",
  "description": "",
  "items": [
    {
      "name": "Default",
      "path": "variations/card.html",
      "description": "",
      "contentNotes": "",
      "whenToUse": "",
      "alerts": []
    },
    {
      "name": "With sub title",
      "path": "variations/card-subtitle.html",
      "description": "Cards can also have subtitles. When it's place next to the card title, it will be push underneath the title",
      "contentNotes": "",
      "whenToUse": "",
      "alerts": []
    },
    {
      "name": "With sub title",
      "path": "variations/card-category.html",
      "description": "Cards can also have category.",
      "contentNotes": "",
      "whenToUse": "This should be place above the title and limited to 1 category per card.",
      "alerts": []
    },
    {
      "name": "Flat",
      "path": "variations/card-flat.html",
      "description": "",
      "contentNotes": "",
      "whenToUse": "",
      "alerts": []
    },
    {
      "name": "Card group",
      "path": "card-group.html",
      "description": "",
      "contentNotes": "",
      "whenToUse": "",
      "alerts": []
    }
  ]
}