{
  "name": "Dictionary",
  "intro": "",
  "description": "",
  "items": [
    {
      "name": "Default",
      "path": "variations/default.html",
      "description": "",
      "contentNotes": "",
      "whenToUse": "",
      "alerts": []
    },
    {
      "name": "Vertical",
      "path": "variations/vertical.html",
      "description": "",
      "contentNotes": "In order for the title to stick to the top of the window, sticky-top must be used.<br />On mobile devices, the stuck-title will be 100% of the device's viewport.",
      "whenToUse": "",
      "alerts": [
        "When using the sticky headings, the component must be placed within the grid and full width. i.e. dictiontion-vertial must be placed within col-sm-12.",
        "IE 10, and 11: Sticky polyfill will not work when nested within a tab/ pill."
      ]
    }
  ]
}
