{
  "files": [
    {
      "path": "./dist/js/**/*.min.js",
      "maxSize": "5 kB",
      "compression": "brotli"
    },
    {
      "path": "./dist/css/*.min.css",
      "maxSize": "75 kB",
      "compression": "brotli"
    }
  ]
}