{
  "name": "Dynamic includes",
  "intro": "",
  "description": "",
  "items": [
    {
      "name": "Default",
      "path": "variations/standard.html",
      "description": "",
      "contentNotes": "",
      "whenToUse": "",
      "alerts": []
    }
  ]
}