{
  "name": "Quotes",
  "intro": "",
  "description": "",
  "items": [
    {
      "name": "Default legacy quote",
      "path": "variations/legacy/quote.html",
      "description": "",
      "contentNotes": "",
      "whenToUse": "",
      "alerts": []
    },
    {
      "name": "Legacy quote with image",
      "path": "variations/legacy/image.html",
      "description": "",
      "contentNotes": "",
      "whenToUse": "",
      "alerts": []
    },
    {
      "name": "Legacy quote with icon",
      "path": "variations/legacy/icon.html",
      "description": "",
      "contentNotes": "",
      "whenToUse": "",
      "alerts": []
    },
    {
      "name": "Vertical legacy quote",
      "path": "variations/legacy/vertical.html",
      "description": "",
      "contentNotes": "",
      "whenToUse": "",
      "alerts": []
    },
    {
      "name": "Testimonial legacy quote",
      "path": "variations/legacy/testimonial.html",
      "description": "",
      "contentNotes": "",
      "whenToUse": "",
      "alerts": []
    },
    {
      "name": "Large legacy quote",
      "path": "variations/legacy/large.html",
      "description": "",
      "contentNotes": "",
      "whenToUse": "",
      "alerts": []
    },
    {
      "name": "Floating legacy quote",
      "path": "variations/legacy/float.html",
      "description": "",
      "contentNotes": "",
      "whenToUse": "",
      "alerts": []
    },
    {
      "name": "Rich quote without image",
      "path": "variations/rich/wo-image.html",
      "description": "",
      "contentNotes": "",
      "whenToUse": "",
      "alerts": []
    },
    {
      "name": "Rich quote with image",
      "path": "variations/rich/with-image.html",
      "description": "",
      "contentNotes": "",
      "whenToUse": "",
      "alerts": []
    },
    {
      "name": "Quote rich wih a thumbnail image",
      "path": "variations/rich/thumbnail.html",
      "description": "This will inherit any background of a parent which has a class bg-{colour name}.",
      "contentNotes": "",
      "whenToUse": "",
      "alerts": []
    },
    {
      "name": "Quote rich small variation",
      "path": "variations/rich/small.html",
      "description": "The small variation can be added to any rich variation.",
      "contentNotes": "",
      "whenToUse": "",
      "alerts": []
    },
    {
      "name": "Quote rich wih coloured background",
      "path": "variations/rich/background.html",
      "description": "This will inherit any background of a parent which has a class bg-{colour name}.",
      "contentNotes": "",
      "whenToUse": "",
      "alerts": []
    }
  ]
}
