{
  "name": "Profiles",
  "intro": "",
  "description": "",
  "items": [
    { "name": "Defualt", "path": "variations/profile.html", "description": "", "contentNotes": "", "whenToUse": "", "alerts": [] },
    { "name": "Small", "path": "variations/profile-small.html", "description": "", "contentNotes": "", "whenToUse": "", "alerts": [] },
    { "name": "Large", "path": "variations/profile-large.html", "description": "", "contentNotes": "", "whenToUse": "", "alerts": [] },
    { "name": "Vertical", "path": "variations/profile-vertical.html", "description": "", "contentNotes": "", "whenToUse": "", "alerts": [] },
    { "name": "With image", "path": "variations/profile-vertical.html", "description": "", "contentNotes": "", "whenToUse": "", "alerts": [] },
    { "name": "With image (tablet)", "path": "variations/profile-medium.html", "description": "", "contentNotes": "", "whenToUse": "", "alerts": [] }
  ]
}
