{
  "name": "Audio",
  "intro": "",
  "description": "",
  "items": [
    {
      "name": "Default",
      "path": "audio.html",
      "description": "",
      "contentNotes": "",
      "whenToUse": "",
      "alerts": []
    }
  ]
}
