{
  "name": "Colours",
  "intro": "Accordions are collapsible groupings of headings and content which are useful for things like FAQs.",
  "description": "",
  "parseSass": "./src/sass/globals/vars/colour.sass",
  "items": [
    {
      "name": "Core colours",
      "path": "variations/core.html",
      "description": "",
      "contentNotes": "",
      "whenToUse": "",
      "alerts": [],
      "hideCode": true
    },
    {
      "name": "Bootstrap primary colours",
      "path": "variations/primary.html",
      "description": "",
      "contentNotes": "",
      "whenToUse": "",
      "alerts": [],
      "hideCode": true
    },
    {
      "name": "Grey scale",
      "path": "variations/grey.html",
      "description": "",
      "contentNotes": "",
      "whenToUse": "",
      "alerts": [],
      "hideCode": true
    },
    {
      "name": "Supplementary colours",
      "path": "variations/supplement.html",
      "description": "",
      "contentNotes": "",
      "whenToUse": "",
      "alerts": [],
      "hideCode": true
    },
    {
      "name": "Colour palette",
      "path": "variations/colour-palette.html",
      "description": "",
      "contentNotes": "",
      "whenToUse": "",
      "alerts": [],
      "hideCode": true
    }
  ]
}
