{
  "name": "Forms",
  "intro": "",
  "description": "",
  "items": [
    { "name": "Validation box", "path": "variations/form-validation-box.html", "description": "", "contentNotes": "", "whenToUse": "", "alerts": [] },
    { "name": "Radios", "path": "variations/form-radio.html", "description": "", "contentNotes": "", "whenToUse": "", "alerts": [] },
    { "name": "Checkboxes", "path": "variations/form-checkbox.html", "description": "", "contentNotes": "", "whenToUse": "", "alerts": [] },
    { "name": "Date picker", "path": "variations/form-datepicker.html", "description": "", "contentNotes": "", "whenToUse": "", "alerts": [] },
    { "name": "Disabled attributes", "path": "variations/form-disabled.html", "description": "", "contentNotes": "", "whenToUse": "", "alerts": [] },
    { "name": "Optional fields", "path": "variations/form-optional.html", "description": "", "contentNotes": "", "whenToUse": "", "alerts": [] },
    { "name": "Select", "path": "variations/form-select.html", "description": "", "contentNotes": "", "whenToUse": "", "alerts": [] },
    {
      "name": "Select multiple",
      "path": "variations/form-select-multiple.html",
      "description": "",
      "contentNotes": "",
      "whenToUse": "",
      "alerts": []
    },
    { "name": "Textarea", "path": "variations/form-textarea.html", "description": "", "contentNotes": "", "whenToUse": "", "alerts": [] },
    { "name": "Auto redirect", "path": "variations/form-auto-redirect.html", "description": "", "contentNotes": "", "whenToUse": "", "alerts": [] },
    {
      "name": "Radio button group",
      "path": "variations/form-btn-group-radio.html",
      "description": "",
      "contentNotes": "",
      "whenToUse": "",
      "alerts": ["<strong>IOS 9.1 and IOS 10:</strong> Due to the flexbox support, input height does not fill height."]
    },
    { "name": "Auto redirect", "path": "variations/form-auto-redirect.html", "description": "", "contentNotes": "", "whenToUse": "", "alerts": [] },
    {
      "name": "Bordered radio button group",
      "path": "variations/form-btn-group-radio-bordered.html",
      "description": "",
      "contentNotes": "",
      "whenToUse": ".",
      "alerts": [
        "The radio group can container more then 2 items, however, it will <strong>not</strong> automatically wrap to the next line until mobile device",
        "<strong>IOS 9.1 and IOS 10:</strong> Due to the flexbox support, input height does not fill height."
      ]
    },
    {
      "name": "Checkbox button group",
      "path": "variations/form-btn-group-checkbox.html",
      "description": "",
      "contentNotes": "",
      "whenToUse": "",
      "alerts": ["<strong>IOS 9.1 and IOS 10:</strong> Due to the flexbox support, input height does not fill height."]
    }
  ]
}
