{
  "name": "Header global",
  "intro": "",
  "description": "",
  "items": [{ "name": "defaulu", "path": "header-global.html", "description": "", "contentNotes": "", "whenToUse": "", "alerts": [] }]
}
