{
  "name": "Images",
  "intro": "",
  "description": "",
  "items": [
    { "name": "Default", "path": "variations/image.html", "description": "", "contentNotes": "", "whenToUse": "", "alerts": [] },
    { "name": "Lazy loading", "path": "variations/image-lazy.html", "description": "", "contentNotes": "", "whenToUse": "", "alerts": [] },
    { "name": "Captions", "path": "variations/image-caption.html", "description": "", "contentNotes": "", "whenToUse": "", "alerts": [] },
    { "name": "Floats", "path": "variations/image-float.html", "description": "", "contentNotes": "", "whenToUse": "", "alerts": [] },
    { "name": "With video", "path": "variations/image-with-video.html", "description": "", "contentNotes": "", "whenToUse": "", "alerts": [] },
    { "name": "With link", "path": "variations/image-with-icon-and-text.html", "description": "", "contentNotes": "", "whenToUse": "", "alerts": [] },
    { "name": "Downloadable", "path": "variations/image-download.html", "description": "", "contentNotes": "", "whenToUse": "", "alerts": [] }
  ]
}
