{
  "name": "Local navigation",
  "intro": "",
  "description": "",
  "items": [{ "name": "Defualt", "path": "nav-local.html", "description": "", "contentNotes": "", "whenToUse": "", "alerts": [] }]
}
