{
  "name": "Modals",
  "intro": "",
  "description": "",
  "items": [
    {
      "name": "Defualt",
      "path": "variations/modal.html",
      "description": "",
      "contentNotes": "",
      "whenToUse": "",
      "alerts": []
    },
    {
      "name": "Dark",
      "path": "variations/modal-dark.html",
      "description": "",
      "contentNotes": "",
      "whenToUse": "",
      "alerts": []
    },
    {
      "name": "Image",
      "path": "variations/modal-image.html",
      "description": "",
      "contentNotes": "",
      "whenToUse": "",
      "alerts": []
    },
    {
      "name": "Image with caption",
      "path": "variations/modal-image-caption.html",
      "description": "",
      "contentNotes": "",
      "whenToUse": "",
      "alerts": []
    },
    {
      "name": "Image with download",
      "path": "variations/modal-image-download.html",
      "description": "",
      "contentNotes": "",
      "whenToUse": "",
      "alerts": []
    },
    {
      "name": "Image with caption and download",
      "path": "variations/modal-image-caption-download.html",
      "description": "",
      "contentNotes": "",
      "whenToUse": "",
      "alerts": []
    },
    {
      "name": "Image portrait",
      "path": "variations/modal-image-portrait.html",
      "description": "",
      "contentNotes": "",
      "whenToUse": "",
      "alerts": []
    },
    {
      "name": "Module information",
      "path": "variations/modal-module-info.html",
      "description": "",
      "contentNotes": "",
      "whenToUse": "",
      "alerts": []
    },
    {
      "name": "No summary",
      "path": "variations/modal-no-summary.html",
      "description": "",
      "contentNotes": "",
      "whenToUse": "",
      "alerts": []
    },
    {
      "name": "Summary",
      "path": "variations/modal-summary.html",
      "description": "",
      "contentNotes": "",
      "whenToUse": "",
      "alerts": []
    },
    {
      "name": "Summary no title",
      "path": "variations/modal-summary-no-title.html",
      "description": "",
      "contentNotes": "",
      "whenToUse": "",
      "alerts": []
    },
    {
      "name": "IFrame modal",
      "path": "variations/modal-iframe.html",
      "description": "On mpbile, this uses the standard fixed-modal styling, once the breakpoint is table and above, then it appears the same as the modal-image",
      "contentNotes": "",
      "whenToUse": "",
      "alerts": []
    }
  ]
}