{
  "name": "Maps",
  "intro": "",
  "description": "",
  "items": [
    {
      "name": "Interactive map",
      "path": "variations/interactive/map-panel.html",
      "description": "This can also be used without a panel",
      "contentNotes": "",
      "whenToUse": "",
      "alerts": []
    },
    {
      "name": "basic",
      "path": "variations/map-link.html",
      "description": "",
      "contentNotes": "",
      "whenToUse": "",
      "alerts": []
    },
    {
      "name": "Two links",
      "path": "variations/map-link-2-marker.html",
      "description": "",
      "contentNotes": "",
      "whenToUse": "",
      "alerts": []
    }
  ]
}