{
  "name": "Breadcrumb",
  "intro": "",
  "description": "",
  "items": [
    {
      "name": "Default",
      "path": "variations/breadcrumb.html",
      "description": "",
      "contentNotes": "",
      "whenToUse": "",
      "alerts": []
    },
    {
      "name": "Without home",
      "path": "variations/breadcrumb-ancestor.html",
      "description": "",
      "contentNotes": "",
      "whenToUse": "",
      "alerts": []
    }
  ]
}
