{
  "name": "Progress",
  "intro": "",
  "description": "",
  "items": [
    { "name": "Defualt", "path": "variations/progress.html", "description": "", "contentNotes": "", "whenToUse": "", "alerts": [] },
    { "name": "Animated", "path": "variations/progress-animated.html", "description": "", "contentNotes": "", "whenToUse": "", "alerts": [] },
    { "name": "Label", "path": "variations/progress-label.html", "description": "", "contentNotes": "", "whenToUse": "", "alerts": [] },
    { "name": "Multiple states", "path": "variations/progress-multi.html", "description": "", "contentNotes": "", "whenToUse": "", "alerts": [] },
    { "name": "Progress sets", "path": "variations/progress-set.html", "description": "", "contentNotes": "", "whenToUse": "", "alerts": [] },
    { "name": "Stripped", "path": "variations/progress-stripped.html", "description": "", "contentNotes": "", "whenToUse": "", "alerts": [] }
  ]
}
