{
  "name": "Section navigation",
  "intro": "",
  "description": "",
  "items": [
    { "name": "Defualt", "path": "variations/nav-section.html", "description": "", "contentNotes": "", "whenToUse": "", "alerts": [] },
    {
      "name": "Sticky section navigtion",
      "path": "variations/nav-section-sticky.html",
      "description": "",
      "contentNotes": "",
      "whenToUse": "",
      "alerts": []
    }
  ]
}
