{
  "name": "Label and badges",
  "intro": "",
  "description": "",
  "items": [
    { "name": "Labels", "path": "variations/label.html", "description": "", "contentNotes": "", "whenToUse": "", "alerts": [] },
    { "name": "Label states", "path": "variations/label-states.html", "description": "", "contentNotes": "", "whenToUse": "", "alerts": [] },
    { "name": "Badges", "path": "variations/badges.html", "description": "", "contentNotes": "", "whenToUse": "", "alerts": [] },
    { "name": "Badge states", "path": "variations/badges-states.html", "description": "", "contentNotes": "", "whenToUse": "", "alerts": [] },
    { "name": "Badge outline", "path": "variations/badges-outline.html", "description": "", "contentNotes": "", "whenToUse": "", "alerts": [] }
  ]
}
