{
  "name": "Pagination",
  "intro": "",
  "description": "",
  "items": [
    { "name": "Defualt", "path": "variations/pagination.html", "description": "", "contentNotes": "", "whenToUse": "", "alerts": [] },
    { "name": "With inactive", "path": "variations/pagination-inactive.html", "description": "", "contentNotes": "", "whenToUse": "", "alerts": [] }
  ]
}
