{
  "name": "Content toggle",
  "intro": "",
  "description": "",
  "items": [
    {
      "name": "Default",
      "path": "variations/content-toggle.html",
      "description": "",
      "contentNotes": "",
      "whenToUse": "the .content-toggle should not be placed between .row and a column. This will break on IE 10 and IE 11",
      "alerts": []
    },
    {
      "name": "Blue background",
      "path": "variations/content-toggle-blue.html",
      "description": "",
      "contentNotes": "",
      "whenToUse": "",
      "alerts": []
    },
    {
      "name": "Left aligned",
      "path": "variations/content-toggle-left.html",
      "description": "",
      "contentNotes": "",
      "whenToUse": "",
      "alerts": []
    }
  ]
}