{
  "name": "Local footer",
  "intro": "",
  "description": "",
  "items": [
    {
      "name": "Default",
      "path": "footer-local.html",
      "description": "",
      "contentNotes": "",
      "whenToUse": "",
      "alerts": []
    }
  ]
}
