<svg class="icon" xmlns="http://www.w3.org/2000/svg" viewBox="0 0 28.06 32.04">
  <title>Android</title>
  <path d="M20.81,0.41L19.56,2.88a9,9,0,0,1,3.53,2.84,9.17,9.17,0,0,1,1.72,4.34H6.88a9.08,9.08,0,0,1,5.28-7.22L10.84,0.44A0.25,0.25,0,0,1,11.28.19l1.34,2.47a8.5,8.5,0,0,1,3.19-.59,9,9,0,0,1,3.31.59l1.22-2.47a0.26,0.26,0,1,1,.47.22h0ZM11.88,8.5a1.36,1.36,0,0,0,1.38-1.44,1.36,1.36,0,0,0-1.37-1.44,1.36,1.36,0,0,0-1.5,1.44A1.36,1.36,0,0,0,11.88,8.5Zm7.94,0a1.4,1.4,0,0,0,1.47-1.44,1.44,1.44,0,1,0-2.87,0A1.45,1.45,0,0,0,19.81,8.5Zm9.53,2.09A2.16,2.16,0,0,1,29.88,12l0.06,8a2.4,2.4,0,0,1-.59,1.38,2,2,0,0,1-1.44.59,1.92,1.92,0,0,1-1.37-.59A2,2,0,0,1,25.94,20V12a2.06,2.06,0,0,1,.59-1.44A2.1,2.1,0,0,1,27.94,10a2.37,2.37,0,0,1,1.41.59h0Zm-24.06,0A2.2,2.2,0,0,1,5.88,12v8a2,2,0,0,1-.56,1.38A2,2,0,0,1,3.91,22a1.88,1.88,0,0,1-1.41-.59A2.33,2.33,0,0,1,1.87,20l0.06-8a2,2,0,0,1,.56-1.44A2.08,2.08,0,0,1,3.88,10a2.42,2.42,0,0,1,1.41.53h0Zm1.59,1.5H24.81l0.06,11A3.16,3.16,0,0,1,24,25.19a3.07,3.07,0,0,1-2.16.88H20.88l-0.06,4a1.69,1.69,0,0,1-.56,1.41,2,2,0,0,1-2.81,0,2.25,2.25,0,0,1-.62-1.41l0.06-4H14.81l0.06,4a2.4,2.4,0,0,1-.59,1.41,2,2,0,0,1-1.44.59,2,2,0,0,1-2-2v-4h-1a3,3,0,0,1-3-3H6.81Z"
    transform="translate(-1.87 -0.02)"></path>
</svg>