<svg class="icon" xmlns="http://www.w3.org/2000/svg" viewBox="0 0 31.97 22">
  <title>Books</title>
  <path d="M0,6H8V28H0V6ZM10,6h8V28H10V6ZM32,25.47l-6.37-19L18,9l6.38,19ZM2,12H6V10H2v2Zm10,0h4V10H12v2Z" transform="translate(0 -6)"></path>
</svg>