<svg class="icon" xmlns="http://www.w3.org/2000/svg" viewBox="0 0 28.06 32">
  <title>Campuses</title>
  <path d="M20.88,0H30V32H20.88V0Zm6.59,3.88h-4v4h4v-4Zm-12.09,4H18V32H2V7.88H4.41V4.31H5.75V7.88H9.41V5.66h6V7.88Zm-6.81,4h-4v4h4v-4Zm6.81,0h-4v4h4v-4Zm12.09,0h-4v4h4v-4Zm-18.91,8h-4v4h4v-4Zm6.81,0h-4v4h4v-4Zm12.09,0h-4v4h4v-4Z"
    transform="translate(-1.97)"></path>
</svg>