<svg class="icon" xmlns="http://www.w3.org/2000/svg" viewBox="0 0 32 19.75">
    <title>Chevron down</title>
    <path d="M28.28,6.13L16,18.41,3.72,6.13,0,9.84l16,16,16-16Z" transform="translate(0 -6.13)"></path>
</svg>