<svg class="icon" xmlns="http://www.w3.org/2000/svg" viewBox="0 0 19.75 32">
  <title>Chevron left</title>
  <path d="M25.88,28.28L13.59,16,25.88,3.72,22.16,0l-16,16,16,16Z" transform="translate(-6.13 0)"></path>
</svg>