<svg class="icon" focusable="false" xmlns="http://www.w3.org/2000/svg" viewBox="0 0 28 28">
  <title>Close</title>
  <path d="M29.75,24.5l0.06,0.06a0.69,0.69,0,0,1,.13.16,0.12,0.12,0,0,0,0,.09,0.69,0.69,0,0,1,0,.25v0.22a1,1,0,0,1-.25.47l-4,4a0.56,0.56,0,0,1-.22.16,0.84,0.84,0,0,1-.47.09,0.69,0.69,0,0,1-.25,0l-0.06-.06a0.36,0.36,0,0,1-.19-0.09L16,21.25,7.44,29.81a0.27,0.27,0,0,1-.16.09L7.19,30a0.69,0.69,0,0,1-.25,0,0.47,0.47,0,0,1-.22,0,0.73,0.73,0,0,1-.47-0.22l-4-4a0.56,0.56,0,0,1-.16-0.22A0.84,0.84,0,0,1,2,25.06a0.69,0.69,0,0,1,0-.25l0.06-.09a0.26,0.26,0,0,1,.09-0.16L10.75,16,2.19,7.44s0-.06-0.06-0.09a0.55,0.55,0,0,1-.06-0.16A0.74,0.74,0,0,1,2,6.94a0.69,0.69,0,0,1,0-.25,0.73,0.73,0,0,1,.22-0.44l4-4a0.56,0.56,0,0,1,.22-0.16A0.84,0.84,0,0,1,6.93,2a0.72,0.72,0,0,1,.25.06H7.28a0.66,0.66,0,0,1,.16.13L16,10.75l8.56-8.56a1,1,0,0,1,.19-0.12,0.06,0.06,0,0,0,.06,0,0.69,0.69,0,0,1,.25,0h0.25a1,1,0,0,1,.44.25l4,4a0.56,0.56,0,0,1,.16.22,0.84,0.84,0,0,1,.09.47,0.69,0.69,0,0,1,0,.25,0.06,0.06,0,0,0,0,.06l-0.12.19L21.25,16Z" transform="translate(-2 -2)" />
</svg>