<svg class="icon" xmlns="http://www.w3.org/2000/svg" viewBox="0 0 36 32">
  <title>Comments outline</title>
  <path d="M15,0A16.94,16.94,0,0,0,4.41,3.53,11,11,0,0,0,0,12.13a10.18,10.18,0,0,0,1.5,5.31,12.49,12.49,0,0,0,4.06,4.13,0.47,0.47,0,0,0,0,.22c0,0.13,0,.28,0,0.41v0.22a4.4,4.4,0,0,1-1.06,2.78,7.87,7.87,0,0,1-2.56,2V28a19.56,19.56,0,0,0,5.53-.78,11.85,11.85,0,0,0,5.13-3.09c0.38,0,.78.09,1.19,0.09a3.43,3.43,0,0,0,.56,0,3.62,3.62,0,0,0,.59,0,16.93,16.93,0,0,0,10.63-3.56A11.07,11.07,0,0,0,30,12.12a11.07,11.07,0,0,0-4.37-8.59A17.09,17.09,0,0,0,15,0h0Zm0,4a14.82,14.82,0,0,1,2.34.19,13.24,13.24,0,0,1,2.19.56,10.27,10.27,0,0,1,1.91.81,12.76,12.76,0,0,1,1.66,1.09,9.15,9.15,0,0,1,2.16,2.56,6.07,6.07,0,0,1,0,5.84,9.62,9.62,0,0,1-2.16,2.56,12.62,12.62,0,0,1-1.66,1.06,13,13,0,0,1-1.91.84,13.24,13.24,0,0,1-2.19.56,14.82,14.82,0,0,1-2.34.19,2.09,2.09,0,0,1-.44,0H14.09a2.39,2.39,0,0,1-.47,0c-0.16,0-.31,0-0.47-0.06H13a0.19,0.19,0,0,1-.12,0H12.66a3.59,3.59,0,0,0-1.5.31,4.12,4.12,0,0,0-1.31.84l-0.25.25V21.41a0.93,0.93,0,0,1-.06-0.28V21a5,5,0,0,0-.59-1.56,3.91,3.91,0,0,0-1.19-1.19,8.11,8.11,0,0,1-1.59-1.31,8,8,0,0,1-1.22-1.53,4.59,4.59,0,0,1-.69-1.56,5.94,5.94,0,0,1,.5-4.59A9.16,9.16,0,0,1,6.9,6.66,12.76,12.76,0,0,1,8.56,5.57a10.27,10.27,0,0,1,1.91-.81,12.83,12.83,0,0,1,2.22-.56A14.14,14.14,0,0,1,15,4h0ZM31.13,27.22V27a0.4,0.4,0,0,1,0-.19V26.66a0.34,0.34,0,0,1,0-.16A11.42,11.42,0,0,0,34.69,23,8.7,8.7,0,0,0,36,18.41a8.89,8.89,0,0,0-1-4,11.48,11.48,0,0,0-2.69-3.25,0.69,0.69,0,0,0,0,.25v0.72a13.57,13.57,0,0,1-.34,3A13.68,13.68,0,0,1,30.94,18a14.57,14.57,0,0,1-1.66,2.44,13,13,0,0,1-2.19,2.16,17.26,17.26,0,0,1-5.53,3,20.27,20.27,0,0,1-6.5,1.09A15.08,15.08,0,0,0,23,28.81c0.34,0,.69,0,1-0.06s0.66,0,1-.06a10.33,10.33,0,0,0,4.31,2.66A15.38,15.38,0,0,0,34,32V31.31a5.45,5.45,0,0,1-2.09-1.72,4,4,0,0,1-.78-2.37h0Z"
    transform="translate(0 0)" />
</svg>