<svg class="icon" xmlns="http://www.w3.org/2000/svg" viewBox="0 0 28 32">
  <title>Directories</title>
  <path d="M30,0V32H4V26H9V5H4V0H30ZM7,7H2V9H7V7ZM27,24V22.25s0-1-2.12-2a12.7,12.7,0,0,0-4.47-1.62c0.66-.53,1-1.59,1.56-3V15.56a0.51,0.51,0,0,0,.38,0A2.78,2.78,0,0,0,22.75,14c0-.66-0.31-0.59-0.31-0.59V13.25a10.23,10.23,0,0,0,0-2.19,3.28,3.28,0,0,0-.66-1.62,3,3,0,0,0-1.84-.94,5.59,5.59,0,0,0-2.22-.19c-0.72.25-.31,1-0.91,1s-0.94.94-1.16,1.78a10.2,10.2,0,0,0,0,2.19v0.16h0s-0.34-.06-0.34.59a3.05,3.05,0,0,0,.44,1.53,0.5,0.5,0,0,0,.38,0s0,0,0,.06c0.56,1.47.88,2.53,1.53,3a12.74,12.74,0,0,0-4.44,1.63c-2.09.94-2.09,2-2.09,2V24H27ZM7,12H2v2H7V12Zm0,5H2v2H7V17Zm0,5H2v2H7V22Z"
    transform="translate(-2)" />
</svg>