<svg class="icon" xmlns="http://www.w3.org/2000/svg" viewBox="0 0 32 32">
  <title>Earth</title>
  <path d="M27.31,4.69a15.91,15.91,0,0,0-5.19-3.47,16,16,0,0,0-12.25,0A16,16,0,0,0,1.22,9.88a16,16,0,0,0,0,12.25,16,16,0,0,0,8.66,8.66,16,16,0,0,0,12.25,0,16,16,0,0,0,8.66-8.66,16,16,0,0,0,0-12.25A15.92,15.92,0,0,0,27.31,4.69ZM25.91,25.91a14.06,14.06,0,0,1-4.53,3A13.65,13.65,0,0,1,16,30a13.48,13.48,0,0,1-5.34-1.06,13.87,13.87,0,0,1-7.13-6.56,13.71,13.71,0,0,1-1.34-4.09,5.43,5.43,0,0,1,.53-1.41,4.36,4.36,0,0,1,.88-1.12,0.66,0.66,0,0,0-.06-0.81A2.55,2.55,0,0,0,2.12,14a18.55,18.55,0,0,1,.66-2.59A9.82,9.82,0,0,1,3.87,9a3.47,3.47,0,0,0,2.56-.91A5.38,5.38,0,0,0,8,5.91a0.5,0.5,0,0,0,.28-0.66,1.65,1.65,0,0,0-.66-0.5,15.79,15.79,0,0,1,3.94-2.06A13.69,13.69,0,0,1,16,2a14.49,14.49,0,0,1,3.13.34,13.42,13.42,0,0,1,2.91,1,0.77,0.77,0,0,1-.84.78,2,2,0,0,1-1.37-.69H19.53a6.4,6.4,0,0,0-3.12,1.69c-0.53.53-.78,1.06-0.5,1.41a2.34,2.34,0,0,1,.81-0.37c0.53-.09.91,0,0.94,0.47a1.55,1.55,0,0,1-.28.91A1.1,1.1,0,0,1,15.66,8c-0.56-.31-1.12-0.75-1.75-0.37a0.26,0.26,0,0,1,0,.44,2.13,2.13,0,0,1-.66.41,5.06,5.06,0,0,1-1.59.5c-0.66-.12-0.41.13-0.06,0.44s0.72,0.72.25,0.94c-1.37.22-1,.72-0.31,0.84A1.25,1.25,0,0,0,13.25,10c1.28-.66,1.94.06,2.59,0.91s1.37,1.81,2.66,1.53a1.41,1.41,0,0,1,0-1.59A2.12,2.12,0,0,1,20,10c1.25,0.34.84,0.81,0.34,1.22s-1.06.81-.16,1a0.84,0.84,0,0,1-.47.63,13.76,13.76,0,0,1-2,1,2.68,2.68,0,0,0-.87.59c-1.37,0-2.31-1.06-3.28-1.84s-2-1.31-3.44-.41a3.56,3.56,0,0,0-2.25,2,4.53,4.53,0,0,0-.34,3.09C8,18.5,8.69,19.59,9.59,19.62s2,0.09,3.16.19a2.51,2.51,0,0,1,1.19,1.28,16.33,16.33,0,0,1,.84,4.13,7.63,7.63,0,0,0,.41,2A10.5,10.5,0,0,0,18,28.56a1.23,1.23,0,0,0,1.88-1,4.37,4.37,0,0,1,.28-2.09,23.61,23.61,0,0,1,2.38-4.56c0.47-.78.81-1.41,1.09-1.94,0.91-1.47.44-1.37-.31-1.12s-1.87.75-2.28,0c-0.12-.75-0.06-1.19.22-1.34,0.5-.28,1.44,0,2.47.25A1.53,1.53,0,0,0,25,16.65a1.89,1.89,0,0,0,1.09.25h1.13a1.3,1.3,0,0,1,1.44,1.38,1.37,1.37,0,0,0,.47,1,0.85,0.85,0,0,0,.59-0.47,13.36,13.36,0,0,1-1.37,3.78,14.61,14.61,0,0,1-2.44,3.31h0Z"
    transform="translate(0 0)" />
</svg>