<svg class="icon" xmlns="http://www.w3.org/2000/svg" viewBox="0 0 28 32.03">
  <title>File</title>
  <path d="M29.94,10.5l0,19A2.51,2.51,0,0,1,27.44,32L4.5,32a2.52,2.52,0,0,1-1.78-.75A2.59,2.59,0,0,1,2,29.47l0-27A2.5,2.5,0,0,1,2.72.72,2.57,2.57,0,0,1,4.47,0l15,0a6.42,6.42,0,0,1,2.28.5,5.91,5.91,0,0,1,2,1.25l4.47,4.47,0,0a5.91,5.91,0,0,1,1.25,2A6.42,6.42,0,0,1,29.94,10.5Zm-2,19.19a0.17,0.17,0,0,0,0-.19l0,0,0-19.5-8,0,0-7.91A0.47,0.47,0,0,0,19.84,2a0.1,0.1,0,0,1-.12,0,0.24,0.24,0,0,0-.12,0,0.14,0.14,0,0,1-.16,0l-15,0a0.18,0.18,0,0,0-.19,0,0.66,0.66,0,0,0-.16.09A0.31,0.31,0,0,0,4,2.31a0.61,0.61,0,0,1-.06.19l0,27a0.44,0.44,0,0,0,.16.31,0.43,0.43,0,0,0,.31.16l23,0A0.66,0.66,0,0,1,27.66,30a0.31,0.31,0,0,0,.16-0.12,0.69,0.69,0,0,0,.09-0.16h0ZM21.94,8l5.13,0A0.47,0.47,0,0,1,27,7.91l-0.16-.19a0.16,0.16,0,0,1-.09-0.06L22.28,3.19,22.16,3A0.16,0.16,0,0,1,22.06,3a0.11,0.11,0,0,0-.09,0Z"
    transform="translate(-1.97 0.03)" />
</svg>