<svg class="icon" data-name="Layer 1" xmlns="http://www.w3.org/2000/svg" viewBox="0 0 400 319.89">
    <defs>
        <style>.cls-1{fill:#fff;}</style>
    </defs>
    <title>filter-icon</title>
    <rect class="cls-1" width="400" height="40" rx="20"/>
    <rect class="cls-1" x="60" y="139.89" width="280" height="40" rx="20"/>
    <rect class="cls-1" x="120" y="279.89" width="160" height="40" rx="20"/>
</svg> 