<svg data-name="Find a PC" class="icon" xmlns="http://www.w3.org/2000/svg" viewBox="0 0 400 347.83">
    <title>staff-intranet-icons-final-large</title>
    <path d="M297.1,302H36.23A36.27,36.27,0,0,1,0,265.72V62.82A36.27,36.27,0,0,1,36.23,26.59H297.1a36.27,36.27,0,0,1,36.23,36.23V202.5L299.75,231C299.75,251,317.08,302,297.1,302ZM36.23,41.08A21.76,21.76,0,0,0,14.49,62.82v202.9a21.77,21.77,0,0,0,21.74,21.74H297.1c12,0-12.35-45.22-12.35-57.21l34.09-29.75V62.82A21.76,21.76,0,0,0,297.1,41.08Z" transform="translate(0 -26.59)"></path>
    <path d="M268.12,374.41H65.22A7.24,7.24,0,0,1,58,367.17,36.28,36.28,0,0,1,94.2,330.93H239.13a36.28,36.28,0,0,1,36.23,36.24A7.24,7.24,0,0,1,268.12,374.41ZM73.7,359.92H259.63a21.78,21.78,0,0,0-20.5-14.49H94.2A21.79,21.79,0,0,0,73.7,359.92Z" transform="translate(0 -26.59)"></path>
    <path data-name="<Path>" d="M294.21,258.47H6.54c-3.62,0-6.54-3.24-6.54-7.25S2.92,244,6.54,244H294.21c3.62,0,6.54,3.24,6.54,7.24S297.83,258.47,294.21,258.47Z" transform="translate(0 -26.59)"></path><path data-name="<Path>" d="M282.9,273a7.3,7.3,0,0,1-7.32-7.24,7.18,7.18,0,0,1,7.17-7.25h.15a7.25,7.25,0,0,1,0,14.49Z" transform="translate(0 -26.59)"></path>
    <path data-name="<Path>" d="M152.17,345.43a7.24,7.24,0,0,1-7.24-7.25V294.7a7.25,7.25,0,0,1,14.49,0v43.48A7.24,7.24,0,0,1,152.17,345.43Z" transform="translate(0 -26.59)"></path><path data-name="<Path>" d="M181.16,345.43a7.24,7.24,0,0,1-7.25-7.25V294.7a7.25,7.25,0,0,1,14.5,0v43.48A7.24,7.24,0,0,1,181.16,345.43Z" transform="translate(0 -26.59)"></path>
    <path data-name="<Path>" d="M326.09,70.07H7.25a7.25,7.25,0,1,1,0-14.5H326.09a7.25,7.25,0,0,1,0,14.5Z" transform="translate(0 -26.59)"></path><path d="M333.33,181a66.74,66.74,0,0,0-66.66,66.66c0,33.56,52.81,111,58.82,119.7a9.53,9.53,0,0,0,15.68,0c6-8.71,58.83-86.14,58.83-119.7A66.75,66.75,0,0,0,333.33,181Zm0,95.24A28.58,28.58,0,1,1,361.9,247.7,28.61,28.61,0,0,1,333.33,276.28Z" transform="translate(0 -26.59)"></path>
</svg>