<svg class="icon" xmlns="http://www.w3.org/2000/svg" viewBox="0 0 32 32">
  <title>Info circle</title>
  <path d="M16,0a16,16,0,1,1,0,32A16,16,0,1,1,16,0ZM14,10h4V6H14v4Zm6,14H18V14H12v2h2v8H12v2h8V24Z" transform="translate(0)"
  />
</svg>