<svg class="icon" xmlns="http://www.w3.org/2000/svg" viewBox="0 0 24 24">
  <path d="M0,2.5v18.7l14,2.7V0L0,2.5z M7,16c-1.8,0-3.2-1.9-3.2-4.2c0-2.3,1.4-4.2,3.2-4.2c1.8,0,3.2,1.9,3.2,4.2
	C10.2,14.1,8.8,16,7,16z" />
  <path d="M14.8,11.4v6.3h7.9c0,0,1.2-0.2,1.1-1.7l0-8.2L18,11.7C18,11.7,16.4,13,14.8,11.4z" />
  <path d="M14.8,4.9h8c0,0,0.9-0.1,0.9,1l-7.2,4.8l-1.7-1.1V4.9z" />
  <path d="M7,14.3c-0.8,0-1.5-1.1-1.5-2.5c0-1.4,0.7-2.5,1.5-2.5c0.8,0,1.5,1.1,1.5,2.5C8.5,13.1,7.8,14.3,7,14.3z" />
</svg>