<svg class="icon" xmlns="http://www.w3.org/2000/svg" viewBox="0 0 32 29.5">
  <title>Schools</title>
  <path d="M29.72,25.5H2.19a0.74,0.74,0,0,1-.78-0.78V23.66a0.77,0.77,0,0,1,.78-0.78H4.13a2.33,2.33,0,0,1,.19-1,2.67,2.67,0,0,1,.53-0.78V12.78H2.22A0.8,0.8,0,0,1,1.44,12l0-1.31A1.39,1.39,0,0,1,2.1,9.44l13.19-8A1.19,1.19,0,0,1,16,1.25a1.15,1.15,0,0,1,.66.19l13.22,8a1.39,1.39,0,0,1,.69,1.22v1.28a0.76,0.76,0,0,1-.78.81H27.13v8.38a2.27,2.27,0,0,1,.56.78,2.43,2.43,0,0,1,.19,1h1.84a0.77,0.77,0,0,1,.78.78v1.06a0.77,0.77,0,0,1-.78.78h0ZM16,4.75a2.46,2.46,0,0,0-1.72.72,2.52,2.52,0,0,0-.72,1.72,2.48,2.48,0,0,0,.72,1.75,2.45,2.45,0,0,0,3.47,0,2.35,2.35,0,0,0,.72-1.75,2.4,2.4,0,0,0-.72-1.75A2.46,2.46,0,0,0,16,4.75Zm-7.78,8v8.41a1.9,1.9,0,0,1,.56.75,2.43,2.43,0,0,1,.19,1l1.44,0a2.48,2.48,0,0,1,.22-1,2.68,2.68,0,0,1,.53-0.78V12.78Zm6.28,0v8.38a2.18,2.18,0,0,1,.53.78,2.33,2.33,0,0,1,.22,1h1.5a2.33,2.33,0,0,1,.22-1,2.17,2.17,0,0,1,.53-0.78V12.75h-3Zm9.31,0h-3v8.38a2.66,2.66,0,0,1,.53.78,2.33,2.33,0,0,1,.19,1h1.53a2.33,2.33,0,0,1,.19-1,2.67,2.67,0,0,1,.53-0.78V12.75Zm-23,14.06,30.37,0a0.77,0.77,0,0,1,.81.84v2.31a0.83,0.83,0,0,1-.81.81l-30.38,0A0.77,0.77,0,0,1,0,30V27.6a0.82,0.82,0,0,1,.81-0.78h0Z"
    transform="translate(0 -1.25)" />
</svg>