<svg class="icon" xmlns="http://www.w3.org/2000/svg" viewBox="0 0 28.63 32">
  <title>Signs</title>
  <path d="M14.53,0h2.91V3.16h9.66a0.33,0.33,0,0,1,.25.06,0.34,0.34,0,0,1,.06.25V8.69a0.23,0.23,0,0,1-.06.22,0.6,0.6,0,0,1-.25.09H5a0.73,0.73,0,0,1-.28-0.06,0.72,0.72,0,0,1-.16-0.06,0.42,0.42,0,0,1-.12-0.09L1.94,6.63,1.84,6.5s0-.09-0.06-0.12a0.5,0.5,0,0,1-.09-0.28V6a0.5,0.5,0,0,1,.09-0.28s0-.09.06-0.12l0.09-.09L4.47,3.34a0.49,0.49,0,0,1,.13-0.06,0.87,0.87,0,0,1,.16-0.06A0.75,0.75,0,0,1,5,3.15h9.5V0h0Zm0,10.66h2.91v3H27a1.12,1.12,0,0,1,.28.06,0.87,0.87,0,0,0,.16.06l0.09,0.09,2.53,2.16,0.09,0.13s0.06,0.09.09,0.13a0.46,0.46,0,0,1,.06.28v0.06a0.46,0.46,0,0,1-.06.28l-0.09.13-0.09.09-2.53,2.19a0.47,0.47,0,0,1-.25.13,0.34,0.34,0,0,1-.16,0,0.19,0.19,0,0,1-.12,0H4.91a0.32,0.32,0,0,1-.31-0.31V14a0.32,0.32,0,0,1,.31-0.31h9.63v-3ZM17.44,32V21.19H14.53V32h2.91Z"
    transform="translate(-1.69 0)" />
</svg>