<svg class="icon" xmlns="http://www.w3.org/2000/svg" viewBox="0 0 32 25.75">
  <title>Profile</title>
  <path d="M32,2.25V28H0V2.25H32ZM29.34,4.91H2.66V25.34H29.34V4.91ZM22.06,22.53H5.63V20.84s0-1,2-1.91a15.36,15.36,0,0,1,4.63-2,8.35,8.35,0,0,1-1.41-2.66,5,5,0,0,1-.22-2,10.61,10.61,0,0,1,0-2,2.85,2.85,0,0,1,3.13-2.19,2.84,2.84,0,0,1,3.12,2.19,8.52,8.52,0,0,1,0,2,5,5,0,0,1-.22,2,7.92,7.92,0,0,1-1.41,2.62,17,17,0,0,1,4.66,2c2,0.94,2.06,1.94,2.06,1.94v1.69h0ZM26,10H19.31V8.66H26V10Zm-2.72,3.12H19.31V11.78h3.94v1.31Zm1.63,3.09H19.31V14.88h5.56v1.31Z"
    transform="translate(0 -2.25)" />
</svg>