<svg class="icon" xmlns="http://www.w3.org/2000/svg" viewBox="0 0 32 28.94">
  <title>Users</title>
  <path d="M10.75,25.72a0.79,0.79,0,0,0-.22.13l-0.12.09s-0.06,0-.09.06H0c0-1.72,1.78-3.34,3.81-4.59A17.57,17.57,0,0,1,9,19.16a0.48,0.48,0,0,0,.34-0.31,2.93,2.93,0,0,0,.25-1.12V17.47a2.71,2.71,0,0,1-.25-0.31q-0.28-.33-0.66-0.84a6.76,6.76,0,0,1-1.19-2.84,1.46,1.46,0,0,1-1.09-1.34,2,2,0,0,1,.44-2q0-.33-0.09-1.5A5.87,5.87,0,0,1,7,6.25C7.5,4.62,8.78,3.06,12,3.06A5.19,5.19,0,0,1,16,4.5a5.1,5.1,0,0,1,1.16,3,6.49,6.49,0,0,0-1.5.69,5.63,5.63,0,0,0-1.22,1,6.36,6.36,0,0,0-1.56,3.44,14.16,14.16,0,0,0-.09,3l-0.12.31a3.19,3.19,0,0,0-.22.72,3.82,3.82,0,0,0-.09.91,3.43,3.43,0,0,0,0,.56,4.6,4.6,0,0,0,.25,1.09,3.59,3.59,0,0,0,.5.91,2.37,2.37,0,0,0,.63.72,7.11,7.11,0,0,0,.66,1.56,7.43,7.43,0,0,0,.75,1.22c-0.72.25-1.47,0.56-2.22,0.91s-1.5.81-2.22,1.22h0ZM23,25.16a18,18,0,0,1,5.25,2.25C30.22,28.66,32,30.28,32,32H8c0-1.72,1.78-3.34,3.81-4.59A17.57,17.57,0,0,1,17,25.16a0.48,0.48,0,0,0,.34-0.31,2.93,2.93,0,0,0,.25-1.12V23.47a2.71,2.71,0,0,1-.25-0.31q-0.28-.33-0.66-0.84a6.76,6.76,0,0,1-1.19-2.84,1.46,1.46,0,0,1-1.09-1.34,2,2,0,0,1,.44-2q0-.33-0.09-1.5A5.87,5.87,0,0,1,15,12.25c0.47-1.62,1.75-3.19,5-3.19a5.3,5.3,0,0,1,3.53,1,5.45,5.45,0,0,1,1.72,4.63,14.79,14.79,0,0,0-.12,1.5,2,2,0,0,1,.44,2,1.46,1.46,0,0,1-1.09,1.34A6.07,6.07,0,0,1,24,21a9.7,9.7,0,0,1-1.34,2.13l-0.28.31v0.25s0,0.34.06,0.56a1,1,0,0,0,.53.88h0Z"
    transform="translate(0 -3.06)" />
</svg>