<svg class="icon" xmlns="http://www.w3.org/2000/svg" viewBox="0 0 30 30">
  <title>Windows</title>
  <path d="M30,16V2L14,4.31V16H30ZM12,4.63L0,6.25V16H12V4.63ZM0,18v9.84L12,29.5V18H0ZM14,29.75L30,32V18H14V29.75Z"
    transform="translate(0 -2)" />
</svg>