{
  "name": "Comments",
  "intro": "",
  "description": "",
  "items": [
    {
      "name": "Default",
      "path": "variations/comments.html",
      "description": "",
      "contentNotes": "",
      "whenToUse": "",
      "alerts": []
    },
    {
      "name": "W/ no comments",
      "path": "variations/comments-none.html",
      "description": "",
      "contentNotes": "",
      "whenToUse": "",
      "alerts": []
    }
  ]
}
